<svg width="60" height="60" viewBox="0 0 60 60" fill="none" xmlns="http://www.w3.org/2000/svg">
<rect width="60" height="60" rx="16" fill="white"/>
<g filter="url(#filter0_d_1189_932)">
<path d="M30 34.491C36.5069 34.491 42 35.5616 42 39.6967C42 43.8317 36.4716 44.8667 30 44.8667C23.4931 44.8667 18 43.7944 18 39.661C18 35.526 23.5268 34.491 30 34.491ZM30 14.4667C34.4073 14.4667 37.9402 18.0453 37.9402 22.5096C37.9402 26.974 34.4073 30.5526 30 30.5526C25.5927 30.5526 22.0598 26.974 22.0598 22.5096C22.0598 18.0453 25.5927 14.4667 30 14.4667Z" fill="#EE6C6F"/>
</g>
<defs>
<filter id="filter0_d_1189_932" x="14" y="14.4667" width="32" height="40.4" filterUnits="userSpaceOnUse" color-interpolation-filters="sRGB">
<feFlood flood-opacity="0" result="BackgroundImageFix"/>
<feColorMatrix in="SourceAlpha" type="matrix" values="0 0 0 0 0 0 0 0 0 0 0 0 0 0 0 0 0 0 127 0" result="hardAlpha"/>
<feOffset dy="6"/>
<feGaussianBlur stdDeviation="2"/>
<feComposite in2="hardAlpha" operator="out"/>
<feColorMatrix type="matrix" values="0 0 0 0 0.933333 0 0 0 0 0.423529 0 0 0 0 0.435294 0 0 0 0.11 0"/>
<feBlend mode="normal" in2="BackgroundImageFix" result="effect1_dropShadow_1189_932"/>
<feBlend mode="normal" in="SourceGraphic" in2="effect1_dropShadow_1189_932" result="shape"/>
</filter>
</defs>
</svg>
